---
http_interactions:
- request:
    method: post
    uri: https://api.flickr.com/services/rest/
    body:
      encoding: US-ASCII
      string: method=flickr.reflection.getMethods&format=json&nojsoncallback=1
    headers:
      Accept:
      - ! '*/*'
      User-Agent:
      - FlickRaw/0.9.8
      Authorization:
      - OAuth realm="https://api.flickr.com/services/rest/", oauth_consumer_key="d09e5b97529e3ace79ad3c0e9f1ea1c2",
        oauth_nonce="kCLUETanrUJmk2Y9ekqTflGhYEc%2B5Url4d4xKYg0YZQ%3D", oauth_signature="1a0f1686c361e083%26",
        oauth_signature_method="PLAINTEXT", oauth_timestamp="1418941991", oauth_token="",
        oauth_version="1.0"
      Content-Type:
      - application/x-www-form-urlencoded
  response:
    status:
      code: 200
      message: OK
    headers:
      Date:
      - Thu, 18 Dec 2014 22:33:11 GMT
      Content-Type:
      - application/json
      P3p:
      - policyref="http://info.yahoo.com/w3c/p3p.xml", CP="CAO DSP COR CUR ADM DEV
        TAI PSA PSD IVAi IVDi CONi TELo OTPi OUR DELi SAMi OTRi UNRi PUBi IND PHY
        ONL UNI PUR FIN COM NAV INT DEM CNT STA POL HEA PRE LOC GOV"
      Cache-Control:
      - private
      X-Served-By:
      - www340.flickr.bf1.yahoo.com
      X-Content-Type-Options:
      - NOSNIFF
      Vary:
      - Accept-Encoding
      Age:
      - '0'
      Via:
      - http/1.1 fts116.flickr.bf1.yahoo.com (ApacheTrafficServer/4.0.2 [cMsSf ]),
        http/1.1 r05.ycpi.che.yahoo.net (ApacheTrafficServer [cMsSf ])
      Server:
      - ATS
      Transfer-Encoding:
      - chunked
      Connection:
      - keep-alive
    body:
      encoding: US-ASCII
      string: ! '{"methods":{"method":[{"_content":"flickr.activity.userComments"},{"_content":"flickr.activity.userPhotos"},{"_content":"flickr.auth.checkToken"},{"_content":"flickr.auth.getFrob"},{"_content":"flickr.auth.getFullToken"},{"_content":"flickr.auth.getToken"},{"_content":"flickr.auth.oauth.checkToken"},{"_content":"flickr.auth.oauth.getAccessToken"},{"_content":"flickr.blogs.getList"},{"_content":"flickr.blogs.getServices"},{"_content":"flickr.blogs.postPhoto"},{"_content":"flickr.cameras.getBrandModels"},{"_content":"flickr.cameras.getBrands"},{"_content":"flickr.collections.getInfo"},{"_content":"flickr.collections.getTree"},{"_content":"flickr.commons.getInstitutions"},{"_content":"flickr.contacts.getList"},{"_content":"flickr.contacts.getListRecentlyUploaded"},{"_content":"flickr.contacts.getPublicList"},{"_content":"flickr.contacts.getTaggingSuggestions"},{"_content":"flickr.favorites.add"},{"_content":"flickr.favorites.getContext"},{"_content":"flickr.favorites.getList"},{"_content":"flickr.favorites.getPublicList"},{"_content":"flickr.favorites.remove"},{"_content":"flickr.galleries.addPhoto"},{"_content":"flickr.galleries.create"},{"_content":"flickr.galleries.editMeta"},{"_content":"flickr.galleries.editPhoto"},{"_content":"flickr.galleries.editPhotos"},{"_content":"flickr.galleries.getInfo"},{"_content":"flickr.galleries.getList"},{"_content":"flickr.galleries.getListForPhoto"},{"_content":"flickr.galleries.getPhotos"},{"_content":"flickr.groups.browse"},{"_content":"flickr.groups.discuss.replies.add"},{"_content":"flickr.groups.discuss.replies.delete"},{"_content":"flickr.groups.discuss.replies.edit"},{"_content":"flickr.groups.discuss.replies.getInfo"},{"_content":"flickr.groups.discuss.replies.getList"},{"_content":"flickr.groups.discuss.topics.add"},{"_content":"flickr.groups.discuss.topics.getInfo"},{"_content":"flickr.groups.discuss.topics.getList"},{"_content":"flickr.groups.getInfo"},{"_content":"flickr.groups.join"},{"_content":"flickr.groups.joinRequest"},{"_content":"flickr.groups.leave"},{"_content":"flickr.groups.members.getList"},{"_content":"flickr.groups.pools.add"},{"_content":"flickr.groups.pools.getContext"},{"_content":"flickr.groups.pools.getGroups"},{"_content":"flickr.groups.pools.getPhotos"},{"_content":"flickr.groups.pools.remove"},{"_content":"flickr.groups.search"},{"_content":"flickr.interestingness.getList"},{"_content":"flickr.machinetags.getNamespaces"},{"_content":"flickr.machinetags.getPairs"},{"_content":"flickr.machinetags.getPredicates"},{"_content":"flickr.machinetags.getRecentValues"},{"_content":"flickr.machinetags.getValues"},{"_content":"flickr.panda.getList"},{"_content":"flickr.panda.getPhotos"},{"_content":"flickr.people.findByEmail"},{"_content":"flickr.people.findByUsername"},{"_content":"flickr.people.getGroups"},{"_content":"flickr.people.getInfo"},{"_content":"flickr.people.getLimits"},{"_content":"flickr.people.getPhotos"},{"_content":"flickr.people.getPhotosOf"},{"_content":"flickr.people.getPublicGroups"},{"_content":"flickr.people.getPublicPhotos"},{"_content":"flickr.people.getUploadStatus"},{"_content":"flickr.photos.addTags"},{"_content":"flickr.photos.comments.addComment"},{"_content":"flickr.photos.comments.deleteComment"},{"_content":"flickr.photos.comments.editComment"},{"_content":"flickr.photos.comments.getList"},{"_content":"flickr.photos.comments.getRecentForContacts"},{"_content":"flickr.photos.delete"},{"_content":"flickr.photos.geo.batchCorrectLocation"},{"_content":"flickr.photos.geo.correctLocation"},{"_content":"flickr.photos.geo.getLocation"},{"_content":"flickr.photos.geo.getPerms"},{"_content":"flickr.photos.geo.photosForLocation"},{"_content":"flickr.photos.geo.removeLocation"},{"_content":"flickr.photos.geo.setContext"},{"_content":"flickr.photos.geo.setLocation"},{"_content":"flickr.photos.geo.setPerms"},{"_content":"flickr.photos.getAllContexts"},{"_content":"flickr.photos.getContactsPhotos"},{"_content":"flickr.photos.getContactsPublicPhotos"},{"_content":"flickr.photos.getContext"},{"_content":"flickr.photos.getCounts"},{"_content":"flickr.photos.getExif"},{"_content":"flickr.photos.getFavorites"},{"_content":"flickr.photos.getInfo"},{"_content":"flickr.photos.getNotInSet"},{"_content":"flickr.photos.getPerms"},{"_content":"flickr.photos.getRecent"},{"_content":"flickr.photos.getSizes"},{"_content":"flickr.photos.getUntagged"},{"_content":"flickr.photos.getWithGeoData"},{"_content":"flickr.photos.getWithoutGeoData"},{"_content":"flickr.photos.licenses.getInfo"},{"_content":"flickr.photos.licenses.setLicense"},{"_content":"flickr.photos.notes.add"},{"_content":"flickr.photos.notes.delete"},{"_content":"flickr.photos.notes.edit"},{"_content":"flickr.photos.people.add"},{"_content":"flickr.photos.people.delete"},{"_content":"flickr.photos.people.deleteCoords"},{"_content":"flickr.photos.people.editCoords"},{"_content":"flickr.photos.people.getList"},{"_content":"flickr.photos.recentlyUpdated"},{"_content":"flickr.photos.removeTag"},{"_content":"flickr.photos.search"},{"_content":"flickr.photos.setContentType"},{"_content":"flickr.photos.setDates"},{"_content":"flickr.photos.setMeta"},{"_content":"flickr.photos.setPerms"},{"_content":"flickr.photos.setSafetyLevel"},{"_content":"flickr.photos.setTags"},{"_content":"flickr.photos.suggestions.approveSuggestion"},{"_content":"flickr.photos.suggestions.getList"},{"_content":"flickr.photos.suggestions.rejectSuggestion"},{"_content":"flickr.photos.suggestions.removeSuggestion"},{"_content":"flickr.photos.suggestions.suggestLocation"},{"_content":"flickr.photos.transform.rotate"},{"_content":"flickr.photos.upload.checkTickets"},{"_content":"flickr.photosets.addPhoto"},{"_content":"flickr.photosets.comments.addComment"},{"_content":"flickr.photosets.comments.deleteComment"},{"_content":"flickr.photosets.comments.editComment"},{"_content":"flickr.photosets.comments.getList"},{"_content":"flickr.photosets.create"},{"_content":"flickr.photosets.delete"},{"_content":"flickr.photosets.editMeta"},{"_content":"flickr.photosets.editPhotos"},{"_content":"flickr.photosets.getContext"},{"_content":"flickr.photosets.getInfo"},{"_content":"flickr.photosets.getList"},{"_content":"flickr.photosets.getPhotos"},{"_content":"flickr.photosets.orderSets"},{"_content":"flickr.photosets.removePhoto"},{"_content":"flickr.photosets.removePhotos"},{"_content":"flickr.photosets.reorderPhotos"},{"_content":"flickr.photosets.setPrimaryPhoto"},{"_content":"flickr.places.find"},{"_content":"flickr.places.findByLatLon"},{"_content":"flickr.places.getChildrenWithPhotosPublic"},{"_content":"flickr.places.getInfo"},{"_content":"flickr.places.getInfoByUrl"},{"_content":"flickr.places.getPlaceTypes"},{"_content":"flickr.places.getShapeHistory"},{"_content":"flickr.places.getTopPlacesList"},{"_content":"flickr.places.placesForBoundingBox"},{"_content":"flickr.places.placesForContacts"},{"_content":"flickr.places.placesForTags"},{"_content":"flickr.places.placesForUser"},{"_content":"flickr.places.resolvePlaceId"},{"_content":"flickr.places.resolvePlaceURL"},{"_content":"flickr.places.tagsForPlace"},{"_content":"flickr.prefs.getContentType"},{"_content":"flickr.prefs.getGeoPerms"},{"_content":"flickr.prefs.getHidden"},{"_content":"flickr.prefs.getPrivacy"},{"_content":"flickr.prefs.getSafetyLevel"},{"_content":"flickr.push.getSubscriptions"},{"_content":"flickr.push.getTopics"},{"_content":"flickr.push.subscribe"},{"_content":"flickr.push.unsubscribe"},{"_content":"flickr.reflection.getMethodInfo"},{"_content":"flickr.reflection.getMethods"},{"_content":"flickr.stats.getCollectionDomains"},{"_content":"flickr.stats.getCollectionReferrers"},{"_content":"flickr.stats.getCollectionStats"},{"_content":"flickr.stats.getCSVFiles"},{"_content":"flickr.stats.getPhotoDomains"},{"_content":"flickr.stats.getPhotoReferrers"},{"_content":"flickr.stats.getPhotosetDomains"},{"_content":"flickr.stats.getPhotosetReferrers"},{"_content":"flickr.stats.getPhotosetStats"},{"_content":"flickr.stats.getPhotoStats"},{"_content":"flickr.stats.getPhotostreamDomains"},{"_content":"flickr.stats.getPhotostreamReferrers"},{"_content":"flickr.stats.getPhotostreamStats"},{"_content":"flickr.stats.getPopularPhotos"},{"_content":"flickr.stats.getTotalViews"},{"_content":"flickr.tags.getClusterPhotos"},{"_content":"flickr.tags.getClusters"},{"_content":"flickr.tags.getHotList"},{"_content":"flickr.tags.getListPhoto"},{"_content":"flickr.tags.getListUser"},{"_content":"flickr.tags.getListUserPopular"},{"_content":"flickr.tags.getListUserRaw"},{"_content":"flickr.tags.getMostFrequentlyUsed"},{"_content":"flickr.tags.getRelated"},{"_content":"flickr.test.echo"},{"_content":"flickr.test.login"},{"_content":"flickr.test.null"},{"_content":"flickr.urls.getGroup"},{"_content":"flickr.urls.getUserPhotos"},{"_content":"flickr.urls.getUserProfile"},{"_content":"flickr.urls.lookupGallery"},{"_content":"flickr.urls.lookupGroup"},{"_content":"flickr.urls.lookupUser"}]},"stat":"ok"}'
    http_version: 
  recorded_at: Thu, 18 Dec 2014 22:33:11 GMT
- request:
    method: post
    uri: https://api.flickr.com/services/rest/
    body:
      encoding: US-ASCII
      string: text=cats&tags=cats&license_id=2&method=flickr.photos.search&format=json&nojsoncallback=1
    headers:
      Accept:
      - ! '*/*'
      User-Agent:
      - FlickRaw/0.9.8
      Authorization:
      - OAuth realm="https://api.flickr.com/services/rest/", oauth_consumer_key="d09e5b97529e3ace79ad3c0e9f1ea1c2",
        oauth_nonce="3nR%2F7z1eXKnCRfaskDDjOGM30WaDxmJSP%2FtYsM%2Fs%2FRo%3D", oauth_signature="1a0f1686c361e083%26",
        oauth_signature_method="PLAINTEXT", oauth_timestamp="1418941991", oauth_token="",
        oauth_version="1.0"
      Content-Type:
      - application/x-www-form-urlencoded
  response:
    status:
      code: 200
      message: OK
    headers:
      Date:
      - Thu, 18 Dec 2014 22:33:11 GMT
      Content-Type:
      - application/json
      P3p:
      - policyref="http://info.yahoo.com/w3c/p3p.xml", CP="CAO DSP COR CUR ADM DEV
        TAI PSA PSD IVAi IVDi CONi TELo OTPi OUR DELi SAMi OTRi UNRi PUBi IND PHY
        ONL UNI PUR FIN COM NAV INT DEM CNT STA POL HEA PRE LOC GOV"
      Cache-Control:
      - private
      X-Served-By:
      - www311.flickr.bf1.yahoo.com
      X-Content-Type-Options:
      - NOSNIFF
      Vary:
      - Accept-Encoding
      Age:
      - '0'
      Via:
      - http/1.1 fts117.flickr.bf1.yahoo.com (ApacheTrafficServer/4.0.2 [cMsSf ]),
        http/1.1 r22.ycpi.dcb.yahoo.net (ApacheTrafficServer [cMsSf ])
      Server:
      - ATS
      Transfer-Encoding:
      - chunked
      Connection:
      - keep-alive
    body:
      encoding: US-ASCII
      string: ! '{"photos":{"page":1,"pages":21692,"perpage":100,"total":"2169135","photo":[{"id":"15866828357","owner":"97191400@N07","secret":"3a5bd0bb52","server":"8644","farm":9,"title":"DSC04990.jpg","ispublic":1,"isfriend":0,"isfamily":0},{"id":"16026825156","owner":"127964233@N04","secret":"a141a2e19d","server":"7550","farm":8,"title":"20141211-IMG_1578.jpg","ispublic":1,"isfriend":0,"isfamily":0},{"id":"15865320450","owner":"127964233@N04","secret":"bd41864fb2","server":"7468","farm":8,"title":"20141211-IMG_1590.jpg","ispublic":1,"isfriend":0,"isfamily":0},{"id":"16052531125","owner":"30054343@N07","secret":"3cc702fa40","server":"8653","farm":9,"title":"Christmas
        Puki","ispublic":1,"isfriend":0,"isfamily":0},{"id":"15865016918","owner":"112623317@N03","secret":"b7b66f7f0f","server":"7473","farm":8,"title":"Press
        that shutter release just one more time and you''re dead meat.","ispublic":1,"isfriend":0,"isfamily":0},{"id":"16026692196","owner":"8278193@N06","secret":"52cfa0e98e","server":"8591","farm":9,"title":"\"U
        CAN HAS TEH STUFF,  BUT DIS PLASTIK BAG STAYZ!\"","ispublic":1,"isfriend":0,"isfamily":0},{"id":"16026676146","owner":"126044922@N04","secret":"4f4d7ce24a","server":"7528","farm":8,"title":"Arya
        2 years 2.jpg","ispublic":1,"isfriend":0,"isfamily":0},{"id":"16026677296","owner":"126044922@N04","secret":"c2cb8361bf","server":"8593","farm":9,"title":"Sansa
        3 years.jpg","ispublic":1,"isfriend":0,"isfamily":0},{"id":"15432806613","owner":"126044922@N04","secret":"0c57281c32","server":"8654","farm":9,"title":"Sansa
        3 years 2.jpg","ispublic":1,"isfriend":0,"isfamily":0},{"id":"15865164790","owner":"126044922@N04","secret":"e9b2eae235","server":"8679","farm":9,"title":"Arya
        2 years.jpg","ispublic":1,"isfriend":0,"isfamily":0},{"id":"15864918688","owner":"124959211@N07","secret":"72b9143782","server":"8639","farm":9,"title":"\u00c7u\u00e7i","ispublic":1,"isfriend":0,"isfamily":0},{"id":"16026488496","owner":"75421567@N00","secret":"37684cc4c4","server":"8622","farm":9,"title":"Lets
        all Shout \"IT''S CHRISTMAS\"!!","ispublic":1,"isfriend":0,"isfamily":0},{"id":"15864606260","owner":"8262787@N07","secret":"683f2e3221","server":"7570","farm":8,"title":"Bob","ispublic":1,"isfriend":0,"isfamily":0},{"id":"15429598044","owner":"8262787@N07","secret":"55e45792c8","server":"8663","farm":9,"title":"Casper","ispublic":1,"isfriend":0,"isfamily":0},{"id":"16049935761","owner":"8262787@N07","secret":"ba9baf2e6c","server":"7578","farm":8,"title":"Gracie","ispublic":1,"isfriend":0,"isfamily":0},{"id":"15432255153","owner":"93782583@N02","secret":"58499b60ea","server":"7461","farm":8,"title":"\u201eNaminukai\u201c:
        \u012esigyk unikal\u0173 \"Naminuk\u0173\" kalendori\u0173 ir paremk \"Naminukus\"!","ispublic":1,"isfriend":0,"isfamily":0},{"id":"16051816075","owner":"93782583@N02","secret":"08e9fc2859","server":"7528","farm":8,"title":"MGMA:
        dovanojamas gyv\u016bnas","ispublic":1,"isfriend":0,"isfamily":0},{"id":"15865978157","owner":"93782583@N02","secret":"e0d0d32db2","server":"7478","farm":8,"title":"Dingo
        ilgo plauko katinas","ispublic":1,"isfriend":0,"isfamily":0},{"id":"15429299554","owner":"65255005@N05","secret":"31de045891","server":"7555","farm":8,"title":"Trooper","ispublic":1,"isfriend":0,"isfamily":0},{"id":"15431884433","owner":"65255005@N05","secret":"b3ba15ac22","server":"7468","farm":8,"title":"Trooper","ispublic":1,"isfriend":0,"isfamily":0},{"id":"16051584285","owner":"65255005@N05","secret":"5db5d2f1eb","server":"8599","farm":9,"title":"Trooper","ispublic":1,"isfriend":0,"isfamily":0},{"id":"16049660031","owner":"65255005@N05","secret":"332f251720","server":"7461","farm":8,"title":"Trooper","ispublic":1,"isfriend":0,"isfamily":0},{"id":"16025833206","owner":"65255005@N05","secret":"66c27f4eed","server":"7488","farm":8,"title":"IMG_2034","ispublic":1,"isfriend":0,"isfamily":0},{"id":"15429374044","owner":"65255005@N05","secret":"1da7ff716e","server":"7511","farm":8,"title":"Holly","ispublic":1,"isfriend":0,"isfamily":0},{"id":"15431899053","owner":"65255005@N05","secret":"918561c352","server":"7463","farm":8,"title":"Trooper","ispublic":1,"isfriend":0,"isfamily":0},{"id":"15865810477","owner":"65255005@N05","secret":"73269ac20f","server":"7469","farm":8,"title":"Trooper","ispublic":1,"isfriend":0,"isfamily":0},{"id":"16051645915","owner":"65255005@N05","secret":"f5ecb49047","server":"7549","farm":8,"title":"Holly","ispublic":1,"isfriend":0,"isfamily":0},{"id":"16051504615","owner":"65255005@N05","secret":"82cbf66f33","server":"7471","farm":8,"title":"Trooper","ispublic":1,"isfriend":0,"isfamily":0},{"id":"15431966493","owner":"65255005@N05","secret":"36098b3f1b","server":"7542","farm":8,"title":"Trooper","ispublic":1,"isfriend":0,"isfamily":0},{"id":"15865546349","owner":"65255005@N05","secret":"4036a4d32f","server":"7563","farm":8,"title":"Trooper","ispublic":1,"isfriend":0,"isfamily":0},{"id":"16050825022","owner":"65255005@N05","secret":"c9ed1d5dc3","server":"7540","farm":8,"title":"Trooper","ispublic":1,"isfriend":0,"isfamily":0},{"id":"15864237610","owner":"65255005@N05","secret":"d8ab164062","server":"8583","farm":9,"title":"Trooper","ispublic":1,"isfriend":0,"isfamily":0},{"id":"15864238948","owner":"65255005@N05","secret":"5273bbe91f","server":"8583","farm":9,"title":"IMG_1055","ispublic":1,"isfriend":0,"isfamily":0},{"id":"15432046383","owner":"65255005@N05","secret":"5e641a2ea9","server":"7539","farm":8,"title":"Bailey
        - no-one can see him ;)","ispublic":1,"isfriend":0,"isfamily":0},{"id":"15864271450","owner":"65255005@N05","secret":"c459e2d247","server":"7531","farm":8,"title":"Trooper","ispublic":1,"isfriend":0,"isfamily":0},{"id":"15431888503","owner":"65255005@N05","secret":"773b97361c","server":"8608","farm":9,"title":"Trooper","ispublic":1,"isfriend":0,"isfamily":0},{"id":"15431965123","owner":"65255005@N05","secret":"ca112d63d3","server":"7580","farm":8,"title":"Trooper","ispublic":1,"isfriend":0,"isfamily":0},{"id":"15864175428","owner":"65255005@N05","secret":"a026a8148f","server":"7547","farm":8,"title":"Holly","ispublic":1,"isfriend":0,"isfamily":0},{"id":"15864215900","owner":"65255005@N05","secret":"f2f7fc55b7","server":"7527","farm":8,"title":"Trooper","ispublic":1,"isfriend":0,"isfamily":0},{"id":"15429274754","owner":"65255005@N05","secret":"7bcb8f70a2","server":"7565","farm":8,"title":"Trooper","ispublic":1,"isfriend":0,"isfamily":0},{"id":"16025787316","owner":"65255005@N05","secret":"fb0b272b1d","server":"7480","farm":8,"title":"Trooper","ispublic":1,"isfriend":0,"isfamily":0},{"id":"16025720816","owner":"65255005@N05","secret":"76ee8c4b4c","server":"8602","farm":9,"title":"Trooper","ispublic":1,"isfriend":0,"isfamily":0},{"id":"16051544465","owner":"65255005@N05","secret":"c3665e08c6","server":"7497","farm":8,"title":"Trooper","ispublic":1,"isfriend":0,"isfamily":0},{"id":"16049730011","owner":"65255005@N05","secret":"11da195ebd","server":"7564","farm":8,"title":"Alaska","ispublic":1,"isfriend":0,"isfamily":0},{"id":"15865916787","owner":"65255005@N05","secret":"97fd887b11","server":"7493","farm":8,"title":"Alaska","ispublic":1,"isfriend":0,"isfamily":0},{"id":"15864208500","owner":"65255005@N05","secret":"0be7d874d0","server":"7470","farm":8,"title":"Trooper","ispublic":1,"isfriend":0,"isfamily":0},{"id":"15432018233","owner":"65255005@N05","secret":"f81d932517","server":"7477","farm":8,"title":"Holly","ispublic":1,"isfriend":0,"isfamily":0},{"id":"16051514895","owner":"65255005@N05","secret":"9f1f3ed1b4","server":"7481","farm":8,"title":"Trooper","ispublic":1,"isfriend":0,"isfamily":0},{"id":"16025773366","owner":"65255005@N05","secret":"e6e0c594b7","server":"8665","farm":9,"title":"Trooper","ispublic":1,"isfriend":0,"isfamily":0},{"id":"16025888726","owner":"65255005@N05","secret":"1eaccc9cec","server":"7478","farm":8,"title":"Holly","ispublic":1,"isfriend":0,"isfamily":0},{"id":"15429206754","owner":"65255005@N05","secret":"41849c11af","server":"8578","farm":9,"title":"Trooper","ispublic":1,"isfriend":0,"isfamily":0},{"id":"16025765806","owner":"65255005@N05","secret":"f2359d37f3","server":"7534","farm":8,"title":"Trooper","ispublic":1,"isfriend":0,"isfamily":0},{"id":"15431929223","owner":"65255005@N05","secret":"16f9c60f02","server":"8569","farm":9,"title":"Trooper","ispublic":1,"isfriend":0,"isfamily":0},{"id":"16025896156","owner":"65255005@N05","secret":"b4e94f464a","server":"8649","farm":9,"title":"Trooper
        and Alaska","ispublic":1,"isfriend":0,"isfamily":0},{"id":"15865502249","owner":"65255005@N05","secret":"603fdfb19b","server":"8665","farm":9,"title":"Trooper","ispublic":1,"isfriend":0,"isfamily":0},{"id":"15865923517","owner":"65255005@N05","secret":"ffa9b1ec27","server":"7568","farm":8,"title":"Alaska","ispublic":1,"isfriend":0,"isfamily":0},{"id":"15864075338","owner":"65255005@N05","secret":"9a5405173f","server":"7554","farm":8,"title":"Trooper","ispublic":1,"isfriend":0,"isfamily":0},{"id":"16051559805","owner":"65255005@N05","secret":"493b789511","server":"7517","farm":8,"title":"Trooper","ispublic":1,"isfriend":0,"isfamily":0},{"id":"15864057008","owner":"65255005@N05","secret":"efcf3dd6bf","server":"8675","farm":9,"title":"Trooper","ispublic":1,"isfriend":0,"isfamily":0},{"id":"16051509675","owner":"65255005@N05","secret":"d87dba43b8","server":"8674","farm":9,"title":"Trooper","ispublic":1,"isfriend":0,"isfamily":0},{"id":"15865861257","owner":"65255005@N05","secret":"f21515701d","server":"7468","farm":8,"title":"Holly","ispublic":1,"isfriend":0,"isfamily":0},{"id":"15431896823","owner":"65255005@N05","secret":"0f50af3d4c","server":"8642","farm":9,"title":"Trooper","ispublic":1,"isfriend":0,"isfamily":0},{"id":"16025855096","owner":"65255005@N05","secret":"a9de57d272","server":"7553","farm":8,"title":"Holly","ispublic":1,"isfriend":0,"isfamily":0},{"id":"16051648975","owner":"65255005@N05","secret":"23eca74bfe","server":"7554","farm":8,"title":"Holly","ispublic":1,"isfriend":0,"isfamily":0},{"id":"16050999012","owner":"65255005@N05","secret":"70c9b7fc30","server":"8617","farm":9,"title":"Alaska
        - I like to smooch on exhaust pipes!","ispublic":1,"isfriend":0,"isfamily":0},{"id":"15432029113","owner":"65255005@N05","secret":"3ed3063647","server":"7544","farm":8,"title":"Alaska","ispublic":1,"isfriend":0,"isfamily":0},{"id":"16051596355","owner":"65255005@N05","secret":"3a409bd0d6","server":"8632","farm":9,"title":"Trooper","ispublic":1,"isfriend":0,"isfamily":0},{"id":"15429352734","owner":"65255005@N05","secret":"b21164161c","server":"8570","farm":9,"title":"Holly","ispublic":1,"isfriend":0,"isfamily":0},{"id":"15429331254","owner":"65255005@N05","secret":"9aa5a96c51","server":"7536","farm":8,"title":"Trooper","ispublic":1,"isfriend":0,"isfamily":0},{"id":"16025714276","owner":"65255005@N05","secret":"4384252f57","server":"7490","farm":8,"title":"Bailey
        next door enjoying the late afternoon sun","ispublic":1,"isfriend":0,"isfamily":0},{"id":"15864330760","owner":"65255005@N05","secret":"94e3548027","server":"7464","farm":8,"title":"Trooper","ispublic":1,"isfriend":0,"isfamily":0},{"id":"15432039403","owner":"65255005@N05","secret":"7a95c6cfde","server":"7573","farm":8,"title":"Alaska
        - I like to smooch on exhaust pipes!","ispublic":1,"isfriend":0,"isfamily":0},{"id":"15864348560","owner":"65255005@N05","secret":"f310e9ff54","server":"7559","farm":8,"title":"Holly","ispublic":1,"isfriend":0,"isfamily":0},{"id":"15432037073","owner":"65255005@N05","secret":"bbefed0c91","server":"7578","farm":8,"title":"Alaska
        - I like to smooch on exhaust pipes!","ispublic":1,"isfriend":0,"isfamily":0},{"id":"16050899432","owner":"65255005@N05","secret":"a97940c1fb","server":"7529","farm":8,"title":"Trooper","ispublic":1,"isfriend":0,"isfamily":0},{"id":"15864130678","owner":"65255005@N05","secret":"4dbbd17a80","server":"7461","farm":8,"title":"Trooper","ispublic":1,"isfriend":0,"isfamily":0},{"id":"15431989353","owner":"65255005@N05","secret":"5c5a0df060","server":"7494","farm":8,"title":"Holly","ispublic":1,"isfriend":0,"isfamily":0},{"id":"15865884457","owner":"65255005@N05","secret":"64d4d2f7e0","server":"7482","farm":8,"title":"Holly","ispublic":1,"isfriend":0,"isfamily":0},{"id":"15864233450","owner":"65255005@N05","secret":"6b2f360bfe","server":"7582","farm":8,"title":"Trooper","ispublic":1,"isfriend":0,"isfamily":0},{"id":"16049674541","owner":"65255005@N05","secret":"27da4a8055","server":"7526","farm":8,"title":"Holly","ispublic":1,"isfriend":0,"isfamily":0},{"id":"16025830076","owner":"65255005@N05","secret":"ed2cbb0296","server":"7574","farm":8,"title":"Trooper","ispublic":1,"isfriend":0,"isfamily":0},{"id":"15865891157","owner":"65255005@N05","secret":"1410bc6d64","server":"7494","farm":8,"title":"Holly","ispublic":1,"isfriend":0,"isfamily":0},{"id":"15865900557","owner":"65255005@N05","secret":"42717b1a73","server":"8582","farm":9,"title":"Holly","ispublic":1,"isfriend":0,"isfamily":0},{"id":"16051594135","owner":"65255005@N05","secret":"ea94067208","server":"7551","farm":8,"title":"Trooper","ispublic":1,"isfriend":0,"isfamily":0},{"id":"15431850543","owner":"65255005@N05","secret":"0245f31249","server":"8612","farm":9,"title":"Trooper","ispublic":1,"isfriend":0,"isfamily":0},{"id":"15864081448","owner":"65255005@N05","secret":"efac4ba7be","server":"7535","farm":8,"title":"Trooper","ispublic":1,"isfriend":0,"isfamily":0},{"id":"16025797096","owner":"65255005@N05","secret":"af3828ecb8","server":"7576","farm":8,"title":"Trooper","ispublic":1,"isfriend":0,"isfamily":0},{"id":"16051665615","owner":"65255005@N05","secret":"11ed6d6001","server":"8649","farm":9,"title":"Trooper
        and Alaska","ispublic":1,"isfriend":0,"isfamily":0},{"id":"15865493009","owner":"65255005@N05","secret":"8dd17fd95e","server":"7500","farm":8,"title":"Trooper","ispublic":1,"isfriend":0,"isfamily":0},{"id":"15864308420","owner":"65255005@N05","secret":"2d74be46d1","server":"8652","farm":9,"title":"Trooper","ispublic":1,"isfriend":0,"isfamily":0},{"id":"15864383630","owner":"65255005@N05","secret":"88323e075e","server":"7554","farm":8,"title":"Holly","ispublic":1,"isfriend":0,"isfamily":0},{"id":"16025871436","owner":"65255005@N05","secret":"2ca6654d18","server":"7473","farm":8,"title":"Holly","ispublic":1,"isfriend":0,"isfamily":0},{"id":"16051531385","owner":"72147071@N06","secret":"c53b02f73b","server":"7567","farm":8,"title":"18
        dec 14 1 (6)","ispublic":1,"isfriend":0,"isfamily":0},{"id":"15429294934","owner":"124369699@N08","secret":"9fd1c06387","server":"7482","farm":8,"title":"eyes
        in the sky","ispublic":1,"isfriend":0,"isfamily":0},{"id":"15865546259","owner":"79129139@N04","secret":"43659f6c4c","server":"7471","farm":8,"title":"Matty2","ispublic":1,"isfriend":0,"isfamily":0},{"id":"15865530409","owner":"79129139@N04","secret":"cff8fa4064","server":"7554","farm":8,"title":"Matty1","ispublic":1,"isfriend":0,"isfamily":0},{"id":"16025799776","owner":"79129139@N04","secret":"b293a039aa","server":"8566","farm":9,"title":"Matty3","ispublic":1,"isfriend":0,"isfamily":0},{"id":"16051421765","owner":"79129139@N04","secret":"78c02f44f8","server":"7521","farm":8,"title":"How''s
        my makeup?","ispublic":1,"isfriend":0,"isfamily":0},{"id":"15431778293","owner":"79129139@N04","secret":"75471f33c1","server":"7511","farm":8,"title":"Are
        you finished?","ispublic":1,"isfriend":0,"isfamily":0},{"id":"15865670067","owner":"79129139@N04","secret":"1b11f7e930","server":"7481","farm":8,"title":"I
        can''t get away!","ispublic":1,"isfriend":0,"isfamily":0}]},"stat":"ok"}'
    http_version: 
  recorded_at: Thu, 18 Dec 2014 22:33:12 GMT
recorded_with: VCR 2.9.2
